{
    "annotations": {
      "list": [
        {
          "builtIn": 1,
          "datasource": "-- Grafana --",
          "enable": true,
          "hide": true,
          "iconColor": "rgba(0, 211, 255, 1)",
          "name": "Annotations & Alerts",
          "type": "dashboard"
        }
      ]
    },
    "description": "A dashboard for visualizing results from the k6.io load testing tool, using the InfluxDB exporter",
    "editable": true,
    "gnetId": 2587,
    "graphTooltip": 2,
    "id": 3,
    "iteration": 1584399874536,
    "links": [],
    "panels": [
      {
        "collapsed": false,
        "datasource": null,
        "gridPos": {
          "h": 1,
          "w": 24,
          "x": 0,
          "y": 0
        },
        "id": 18,
        "panels": [],
        "repeat": null,
        "title": "Dashboard Row",
        "type": "row"
      },
      {
        "aliasColors": {},
        "bars": true,
        "dashLength": 10,
        "dashes": false,
        "datasource": "myinfluxdb",
        "fill": 1,
        "fillGradient": 0,
        "gridPos": {
          "h": 7,
          "w": 6,
          "x": 0,
          "y": 1
        },
        "hiddenSeries": false,
        "id": 1,
        "interval": ">1s",
        "legend": {
          "alignAsTable": true,
          "avg": false,
          "current": false,
          "max": true,
          "min": true,
          "show": true,
          "total": false,
          "values": true
        },
        "lines": false,
        "linewidth": 1,
        "links": [],
        "nullPointMode": "null",
        "options": {
          "dataLinks": []
        },
        "percentage": false,
        "pointradius": 5,
        "points": false,
        "renderer": "flot",
        "seriesOverrides": [],
        "spaceLength": 10,
        "stack": false,
        "steppedLine": false,
        "targets": [
          {
            "alias": "Active VUs",
            "dsType": "influxdb",
            "groupBy": [
              {
                "params": [
                  "$__interval"
                ],
                "type": "time"
              },
              {
                "params": [
                  "none"
                ],
                "type": "fill"
              }
            ],
            "measurement": "vus",
            "orderByTime": "ASC",
            "policy": "default",
            "refId": "A",
            "resultFormat": "time_series",
            "select": [
              [
                {
                  "params": [
                    "value"
                  ],
                  "type": "field"
                },
                {
                  "params": [],
                  "type": "mean"
                }
              ]
            ],
            "tags": []
          }
        ],
        "thresholds": [],
        "timeFrom": null,
        "timeRegions": [],
        "timeShift": null,
        "title": "Virtual Users",
        "tooltip": {
          "shared": true,
          "sort": 0,
          "value_type": "individual"
        },
        "type": "graph",
        "xaxis": {
          "buckets": null,
          "mode": "time",
          "name": null,
          "show": true,
          "values": []
        },
        "yaxes": [
          {
            "format": "short",
            "label": null,
            "logBase": 1,
            "max": null,
            "min": null,
            "show": true
          },
          {
            "format": "short",
            "label": null,
            "logBase": 1,
            "max": null,
            "min": null,
            "show": true
          }
        ],
        "yaxis": {
          "align": false,
          "alignLevel": null
        }
      },
      {
        "aliasColors": {},
        "bars": true,
        "dashLength": 10,
        "dashes": false,
        "datasource": "myinfluxdb",
        "fill": 1,
        "fillGradient": 0,
        "gridPos": {
          "h": 7,
          "w": 6,
          "x": 6,
          "y": 1
        },
        "hiddenSeries": false,
        "id": 17,
        "interval": "1s",
        "legend": {
          "alignAsTable": true,
          "avg": true,
          "current": false,
          "max": true,
          "min": false,
          "rightSide": false,
          "show": true,
          "total": false,
          "values": true
        },
        "lines": false,
        "linewidth": 1,
        "links": [],
        "nullPointMode": "null",
        "options": {
          "dataLinks": []
        },
        "percentage": false,
        "pointradius": 5,
        "points": false,
        "renderer": "flot",
        "seriesOverrides": [],
        "spaceLength": 10,
        "stack": false,
        "steppedLine": false,
        "targets": [
          {
            "alias": "Requests per Second",
            "dsType": "influxdb",
            "groupBy": [
              {
                "params": [
                  "$__interval"
                ],
                "type": "time"
              },
              {
                "params": [
                  "null"
                ],
                "type": "fill"
              }
            ],
            "measurement": "http_reqs",
            "orderByTime": "ASC",
            "policy": "default",
            "refId": "A",
            "resultFormat": "time_series",
            "select": [
              [
                {
                  "params": [
                    "value"
                  ],
                  "type": "field"
                },
                {
                  "params": [],
                  "type": "sum"
                }
              ]
            ],
            "tags": []
          }
        ],
        "thresholds": [],
        "timeFrom": null,
        "timeRegions": [],
        "timeShift": null,
        "title": "Requests per Second",
        "tooltip": {
          "shared": true,
          "sort": 0,
          "value_type": "individual"
        },
        "type": "graph",
        "xaxis": {
          "buckets": null,
          "mode": "time",
          "name": null,
          "show": true,
          "values": []
        },
        "yaxes": [
          {
            "format": "short",
            "label": null,
            "logBase": 1,
            "max": null,
            "min": null,
            "show": true
          },
          {
            "format": "short",
            "label": null,
            "logBase": 1,
            "max": null,
            "min": null,
            "show": true
          }
        ],
        "yaxis": {
          "align": false,
          "alignLevel": null
        }
      },
      {
        "aliasColors": {},
        "bars": true,
        "dashLength": 10,
        "dashes": false,
        "datasource": "myinfluxdb",
        "fill": 1,
        "fillGradient": 0,
        "gridPos": {
          "h": 7,
          "w": 6,
          "x": 12,
          "y": 1
        },
        "hiddenSeries": false,
        "id": 10,
        "interval": ">1s",
        "legend": {
          "alignAsTable": true,
          "avg": true,
          "current": false,
          "max": false,
          "min": false,
          "show": true,
          "total": true,
          "values": true
        },
        "lines": false,
        "linewidth": 1,
        "links": [],
        "nullPointMode": "null",
        "options": {
          "dataLinks": []
        },
        "percentage": false,
        "pointradius": 5,
        "points": false,
        "renderer": "flot",
        "seriesOverrides": [
          {
            "alias": "Num Errors",
            "color": "#BF1B00"
          }
        ],
        "spaceLength": 10,
        "stack": true,
        "steppedLine": false,
        "targets": [
          {
            "alias": "$tag_check",
            "dsType": "influxdb",
            "groupBy": [
              {
                "params": [
                  "$__interval"
                ],
                "type": "time"
              },
              {
                "params": [
                  "check"
                ],
                "type": "tag"
              },
              {
                "params": [
                  "none"
                ],
                "type": "fill"
              }
            ],
            "measurement": "checks",
            "orderByTime": "ASC",
            "policy": "default",
            "refId": "C",
            "resultFormat": "time_series",
            "select": [
              [
                {
                  "params": [
                    "value"
                  ],
                  "type": "field"
                },
                {
                  "params": [],
                  "type": "sum"
                }
              ]
            ],
            "tags": []
          }
        ],
        "thresholds": [],
        "timeFrom": null,
        "timeRegions": [],
        "timeShift": null,
        "title": "Checks Per Second",
        "tooltip": {
          "shared": true,
          "sort": 0,
          "value_type": "individual"
        },
        "type": "graph",
        "xaxis": {
          "buckets": null,
          "mode": "time",
          "name": null,
          "show": true,
          "values": []
        },
        "yaxes": [
          {
            "format": "none",
            "label": null,
            "logBase": 1,
            "max": null,
            "min": null,
            "show": true
          },
          {
            "format": "short",
            "label": null,
            "logBase": 1,
            "max": null,
            "min": null,
            "show": true
          }
        ],
        "yaxis": {
          "align": false,
          "alignLevel": null
        }
      },
      {
        "aliasColors": {},
        "bars": true,
        "dashLength": 10,
        "dashes": false,
        "datasource": "myinfluxdb",
        "fill": 1,
        "fillGradient": 0,
        "gridPos": {
          "h": 7,
          "w": 6,
          "x": 18,
          "y": 1
        },
        "hiddenSeries": false,
        "id": 7,
        "interval": "1s",
        "legend": {
          "alignAsTable": true,
          "avg": true,
          "current": false,
          "max": false,
          "min": false,
          "show": true,
          "total": true,
          "values": true
        },
        "lines": false,
        "linewidth": 1,
        "links": [],
        "nullPointMode": "null",
        "options": {
          "dataLinks": []
        },
        "percentage": false,
        "pointradius": 5,
        "points": false,
        "renderer": "flot",
        "seriesOverrides": [
          {
            "alias": "Num Errors",
            "color": "#BF1B00"
          }
        ],
        "spaceLength": 10,
        "stack": true,
        "steppedLine": false,
        "targets": [
          {
            "alias": "Num Errors",
            "dsType": "influxdb",
            "groupBy": [
              {
                "params": [
                  "$__interval"
                ],
                "type": "time"
              },
              {
                "params": [
                  "none"
                ],
                "type": "fill"
              }
            ],
            "measurement": "errors",
            "orderByTime": "ASC",
            "policy": "default",
            "refId": "C",
            "resultFormat": "time_series",
            "select": [
              [
                {
                  "params": [
                    "value"
                  ],
                  "type": "field"
                },
                {
                  "params": [],
                  "type": "count"
                }
              ]
            ],
            "tags": []
          }
        ],
        "thresholds": [],
        "timeFrom": null,
        "timeRegions": [],
        "timeShift": null,
        "title": "Errors Per Second",
        "tooltip": {
          "shared": true,
          "sort": 0,
          "value_type": "individual"
        },
        "type": "graph",
        "xaxis": {
          "buckets": null,
          "mode": "time",
          "name": null,
          "show": true,
          "values": []
        },
        "yaxes": [
          {
            "format": "short",
            "label": null,
            "logBase": 1,
            "max": null,
            "min": null,
            "show": true
          },
          {
            "format": "short",
            "label": null,
            "logBase": 1,
            "max": null,
            "min": null,
            "show": true
          }
        ],
        "yaxis": {
          "align": false,
          "alignLevel": null
        }
      },
      {
        "collapsed": false,
        "datasource": null,
        "gridPos": {
          "h": 1,
          "w": 24,
          "x": 0,
          "y": 8
        },
        "id": 19,
        "panels": [],
        "repeat": "Measurement",
        "scopedVars": {
          "Measurement": {
            "selected": true,
            "text": "All",
            "value": "$__all"
          }
        },
        "title": "$Measurement",
        "type": "row"
      },
      {
        "cacheTimeout": null,
        "colorBackground": false,
        "colorValue": false,
        "colors": [
          "rgba(245, 54, 54, 0.9)",
          "rgba(237, 129, 40, 0.89)",
          "rgba(50, 172, 45, 0.97)"
        ],
        "datasource": "myinfluxdb",
        "decimals": 2,
        "format": "ms",
        "gauge": {
          "maxValue": 100,
          "minValue": 0,
          "show": false,
          "thresholdLabels": false,
          "thresholdMarkers": true
        },
        "gridPos": {
          "h": 3,
          "w": 4,
          "x": 0,
          "y": 9
        },
        "height": "50px",
        "id": 11,
        "interval": null,
        "links": [],
        "mappingType": 1,
        "mappingTypes": [
          {
            "name": "value to text",
            "value": 1
          },
          {
            "name": "range to text",
            "value": 2
          }
        ],
        "maxDataPoints": 100,
        "nullPointMode": "connected",
        "nullText": null,
        "postfix": "",
        "postfixFontSize": "50%",
        "prefix": "",
        "prefixFontSize": "50%",
        "rangeMaps": [
          {
            "from": "null",
            "text": "N/A",
            "to": "null"
          }
        ],
        "scopedVars": {
          "Measurement": {
            "selected": true,
            "text": "All",
            "value": "$__all"
          }
        },
        "sparkline": {
          "fillColor": "rgba(31, 118, 189, 0.18)",
          "full": false,
          "lineColor": "rgb(31, 120, 193)",
          "show": false
        },
        "tableColumn": "",
        "targets": [
          {
            "dsType": "influxdb",
            "groupBy": [
              {
                "params": [
                  "$__interval"
                ],
                "type": "time"
              },
              {
                "params": [
                  "null"
                ],
                "type": "fill"
              }
            ],
            "orderByTime": "ASC",
            "policy": "default",
            "query": "SELECT mean(\"value\") FROM /^$Measurement$/ WHERE $timeFilter ",
            "rawQuery": true,
            "refId": "A",
            "resultFormat": "time_series",
            "select": [
              [
                {
                  "params": [
                    "value"
                  ],
                  "type": "field"
                },
                {
                  "params": [],
                  "type": "mean"
                }
              ]
            ],
            "tags": []
          }
        ],
        "thresholds": "",
        "title": "$Measurement (mean)",
        "type": "singlestat",
        "valueFontSize": "80%",
        "valueMaps": [
          {
            "op": "=",
            "text": "N/A",
            "value": "null"
          }
        ],
        "valueName": "avg"
      },
      {
        "cacheTimeout": null,
        "colorBackground": false,
        "colorValue": false,
        "colors": [
          "rgba(245, 54, 54, 0.9)",
          "rgba(237, 129, 40, 0.89)",
          "rgba(50, 172, 45, 0.97)"
        ],
        "datasource": "myinfluxdb",
        "decimals": 2,
        "format": "ms",
        "gauge": {
          "maxValue": 100,
          "minValue": 0,
          "show": false,
          "thresholdLabels": false,
          "thresholdMarkers": true
        },
        "gridPos": {
          "h": 3,
          "w": 4,
          "x": 4,
          "y": 9
        },
        "height": "50px",
        "id": 14,
        "interval": null,
        "links": [],
        "mappingType": 1,
        "mappingTypes": [
          {
            "name": "value to text",
            "value": 1
          },
          {
            "name": "range to text",
            "value": 2
          }
        ],
        "maxDataPoints": 100,
        "nullPointMode": "connected",
        "nullText": null,
        "postfix": "",
        "postfixFontSize": "50%",
        "prefix": "",
        "prefixFontSize": "50%",
        "rangeMaps": [
          {
            "from": "null",
            "text": "N/A",
            "to": "null"
          }
        ],
        "scopedVars": {
          "Measurement": {
            "selected": true,
            "text": "All",
            "value": "$__all"
          }
        },
        "sparkline": {
          "fillColor": "rgba(31, 118, 189, 0.18)",
          "full": false,
          "lineColor": "rgb(31, 120, 193)",
          "show": false
        },
        "tableColumn": "",
        "targets": [
          {
            "dsType": "influxdb",
            "groupBy": [
              {
                "params": [
                  "$__interval"
                ],
                "type": "time"
              },
              {
                "params": [
                  "null"
                ],
                "type": "fill"
              }
            ],
            "orderByTime": "ASC",
            "policy": "default",
            "query": "SELECT max(\"value\") FROM /^$Measurement$/ WHERE $timeFilter",
            "rawQuery": true,
            "refId": "A",
            "resultFormat": "time_series",
            "select": [
              [
                {
                  "params": [
                    "value"
                  ],
                  "type": "field"
                },
                {
                  "params": [],
                  "type": "mean"
                }
              ]
            ],
            "tags": []
          }
        ],
        "thresholds": "",
        "title": "$Measurement (max)",
        "type": "singlestat",
        "valueFontSize": "80%",
        "valueMaps": [
          {
            "op": "=",
            "text": "N/A",
            "value": "null"
          }
        ],
        "valueName": "avg"
      },
      {
        "cacheTimeout": null,
        "colorBackground": false,
        "colorValue": false,
        "colors": [
          "rgba(245, 54, 54, 0.9)",
          "rgba(237, 129, 40, 0.89)",
          "rgba(50, 172, 45, 0.97)"
        ],
        "datasource": "myinfluxdb",
        "decimals": 2,
        "format": "ms",
        "gauge": {
          "maxValue": 100,
          "minValue": 0,
          "show": false,
          "thresholdLabels": false,
          "thresholdMarkers": true
        },
        "gridPos": {
          "h": 3,
          "w": 4,
          "x": 8,
          "y": 9
        },
        "height": "50px",
        "id": 15,
        "interval": null,
        "links": [],
        "mappingType": 1,
        "mappingTypes": [
          {
            "name": "value to text",
            "value": 1
          },
          {
            "name": "range to text",
            "value": 2
          }
        ],
        "maxDataPoints": 100,
        "nullPointMode": "connected",
        "nullText": null,
        "postfix": "",
        "postfixFontSize": "50%",
        "prefix": "",
        "prefixFontSize": "50%",
        "rangeMaps": [
          {
            "from": "null",
            "text": "N/A",
            "to": "null"
          }
        ],
        "scopedVars": {
          "Measurement": {
            "selected": true,
            "text": "All",
            "value": "$__all"
          }
        },
        "sparkline": {
          "fillColor": "rgba(31, 118, 189, 0.18)",
          "full": false,
          "lineColor": "rgb(31, 120, 193)",
          "show": false
        },
        "tableColumn": "",
        "targets": [
          {
            "dsType": "influxdb",
            "groupBy": [
              {
                "params": [
                  "$__interval"
                ],
                "type": "time"
              },
              {
                "params": [
                  "null"
                ],
                "type": "fill"
              }
            ],
            "orderByTime": "ASC",
            "policy": "default",
            "query": "SELECT median(\"value\") FROM /^$Measurement$/ WHERE $timeFilter",
            "rawQuery": true,
            "refId": "A",
            "resultFormat": "time_series",
            "select": [
              [
                {
                  "params": [
                    "value"
                  ],
                  "type": "field"
                },
                {
                  "params": [],
                  "type": "mean"
                }
              ]
            ],
            "tags": []
          }
        ],
        "thresholds": "",
        "title": "$Measurement (med)",
        "type": "singlestat",
        "valueFontSize": "80%",
        "valueMaps": [
          {
            "op": "=",
            "text": "N/A",
            "value": "null"
          }
        ],
        "valueName": "avg"
      },
      {
        "cacheTimeout": null,
        "colorBackground": false,
        "colorValue": false,
        "colors": [
          "rgba(245, 54, 54, 0.9)",
          "rgba(237, 129, 40, 0.89)",
          "rgba(50, 172, 45, 0.97)"
        ],
        "datasource": "myinfluxdb",
        "decimals": 2,
        "format": "ms",
        "gauge": {
          "maxValue": 100,
          "minValue": 0,
          "show": false,
          "thresholdLabels": false,
          "thresholdMarkers": true
        },
        "gridPos": {
          "h": 3,
          "w": 4,
          "x": 12,
          "y": 9
        },
        "height": "50px",
        "id": 16,
        "interval": null,
        "links": [],
        "mappingType": 1,
        "mappingTypes": [
          {
            "name": "value to text",
            "value": 1
          },
          {
            "name": "range to text",
            "value": 2
          }
        ],
        "maxDataPoints": 100,
        "nullPointMode": "connected",
        "nullText": null,
        "postfix": "",
        "postfixFontSize": "50%",
        "prefix": "",
        "prefixFontSize": "50%",
        "rangeMaps": [
          {
            "from": "null",
            "text": "N/A",
            "to": "null"
          }
        ],
        "scopedVars": {
          "Measurement": {
            "selected": true,
            "text": "All",
            "value": "$__all"
          }
        },
        "sparkline": {
          "fillColor": "rgba(31, 118, 189, 0.18)",
          "full": false,
          "lineColor": "rgb(31, 120, 193)",
          "show": false
        },
        "tableColumn": "",
        "targets": [
          {
            "dsType": "influxdb",
            "groupBy": [
              {
                "params": [
                  "$__interval"
                ],
                "type": "time"
              },
              {
                "params": [
                  "null"
                ],
                "type": "fill"
              }
            ],
            "orderByTime": "ASC",
            "policy": "default",
            "query": "SELECT min(\"value\") FROM /^$Measurement$/ WHERE $timeFilter and value > 0",
            "rawQuery": true,
            "refId": "A",
            "resultFormat": "time_series",
            "select": [
              [
                {
                  "params": [
                    "value"
                  ],
                  "type": "field"
                },
                {
                  "params": [],
                  "type": "mean"
                }
              ]
            ],
            "tags": []
          }
        ],
        "thresholds": "",
        "title": "$Measurement (min)",
        "type": "singlestat",
        "valueFontSize": "80%",
        "valueMaps": [
          {
            "op": "=",
            "text": "N/A",
            "value": "null"
          }
        ],
        "valueName": "current"
      },
      {
        "cacheTimeout": null,
        "colorBackground": false,
        "colorValue": false,
        "colors": [
          "rgba(245, 54, 54, 0.9)",
          "rgba(237, 129, 40, 0.89)",
          "rgba(50, 172, 45, 0.97)"
        ],
        "datasource": "myinfluxdb",
        "decimals": 2,
        "format": "ms",
        "gauge": {
          "maxValue": 100,
          "minValue": 0,
          "show": false,
          "thresholdLabels": false,
          "thresholdMarkers": true
        },
        "gridPos": {
          "h": 3,
          "w": 4,
          "x": 16,
          "y": 9
        },
        "height": "50px",
        "id": 12,
        "interval": null,
        "links": [],
        "mappingType": 1,
        "mappingTypes": [
          {
            "name": "value to text",
            "value": 1
          },
          {
            "name": "range to text",
            "value": 2
          }
        ],
        "maxDataPoints": 100,
        "nullPointMode": "connected",
        "nullText": null,
        "postfix": "",
        "postfixFontSize": "50%",
        "prefix": "",
        "prefixFontSize": "50%",
        "rangeMaps": [
          {
            "from": "null",
            "text": "N/A",
            "to": "null"
          }
        ],
        "scopedVars": {
          "Measurement": {
            "selected": true,
            "text": "All",
            "value": "$__all"
          }
        },
        "sparkline": {
          "fillColor": "rgba(31, 118, 189, 0.18)",
          "full": false,
          "lineColor": "rgb(31, 120, 193)",
          "show": false
        },
        "tableColumn": "",
        "targets": [
          {
            "dsType": "influxdb",
            "groupBy": [
              {
                "params": [
                  "$__interval"
                ],
                "type": "time"
              },
              {
                "params": [
                  "null"
                ],
                "type": "fill"
              }
            ],
            "orderByTime": "ASC",
            "policy": "default",
            "query": "SELECT percentile(\"value\", 90) FROM /^$Measurement$/ WHERE $timeFilter",
            "rawQuery": true,
            "refId": "A",
            "resultFormat": "time_series",
            "select": [
              [
                {
                  "params": [
                    "value"
                  ],
                  "type": "field"
                },
                {
                  "params": [],
                  "type": "mean"
                }
              ]
            ],
            "tags": []
          }
        ],
        "thresholds": "",
        "title": "$Measurement (p90)",
        "type": "singlestat",
        "valueFontSize": "80%",
        "valueMaps": [
          {
            "op": "=",
            "text": "N/A",
            "value": "null"
          }
        ],
        "valueName": "avg"
      },
      {
        "cacheTimeout": null,
        "colorBackground": false,
        "colorValue": false,
        "colors": [
          "rgba(245, 54, 54, 0.9)",
          "rgba(237, 129, 40, 0.89)",
          "rgba(50, 172, 45, 0.97)"
        ],
        "datasource": "myinfluxdb",
        "decimals": 2,
        "format": "ms",
        "gauge": {
          "maxValue": 100,
          "minValue": 0,
          "show": false,
          "thresholdLabels": false,
          "thresholdMarkers": true
        },
        "gridPos": {
          "h": 3,
          "w": 4,
          "x": 20,
          "y": 9
        },
        "height": "50px",
        "id": 13,
        "interval": null,
        "links": [],
        "mappingType": 1,
        "mappingTypes": [
          {
            "name": "value to text",
            "value": 1
          },
          {
            "name": "range to text",
            "value": 2
          }
        ],
        "maxDataPoints": 100,
        "nullPointMode": "connected",
        "nullText": null,
        "postfix": "",
        "postfixFontSize": "50%",
        "prefix": "",
        "prefixFontSize": "50%",
        "rangeMaps": [
          {
            "from": "null",
            "text": "N/A",
            "to": "null"
          }
        ],
        "scopedVars": {
          "Measurement": {
            "selected": true,
            "text": "All",
            "value": "$__all"
          }
        },
        "sparkline": {
          "fillColor": "rgba(31, 118, 189, 0.18)",
          "full": false,
          "lineColor": "rgb(31, 120, 193)",
          "show": false
        },
        "tableColumn": "",
        "targets": [
          {
            "dsType": "influxdb",
            "groupBy": [
              {
                "params": [
                  "$__interval"
                ],
                "type": "time"
              },
              {
                "params": [
                  "null"
                ],
                "type": "fill"
              }
            ],
            "orderByTime": "ASC",
            "policy": "default",
            "query": "SELECT percentile(\"value\", 95) FROM /^$Measurement$/ WHERE $timeFilter ",
            "rawQuery": true,
            "refId": "A",
            "resultFormat": "time_series",
            "select": [
              [
                {
                  "params": [
                    "value"
                  ],
                  "type": "field"
                },
                {
                  "params": [],
                  "type": "mean"
                }
              ]
            ],
            "tags": []
          }
        ],
        "thresholds": "",
        "title": "$Measurement (p95)",
        "type": "singlestat",
        "valueFontSize": "80%",
        "valueMaps": [
          {
            "op": "=",
            "text": "N/A",
            "value": "null"
          }
        ],
        "valueName": "avg"
      },
      {
        "aliasColors": {},
        "bars": false,
        "dashLength": 10,
        "dashes": false,
        "datasource": "myinfluxdb",
        "description": "Grouped by 1 sec intervals",
        "fill": 1,
        "fillGradient": 0,
        "gridPos": {
          "h": 7,
          "w": 12,
          "x": 0,
          "y": 12
        },
        "height": "250px",
        "hiddenSeries": false,
        "id": 5,
        "interval": ">1s",
        "legend": {
          "alignAsTable": false,
          "avg": false,
          "current": false,
          "max": false,
          "min": false,
          "show": true,
          "total": false,
          "values": false
        },
        "lines": true,
        "linewidth": 1,
        "links": [],
        "nullPointMode": "null",
        "options": {
          "dataLinks": []
        },
        "percentage": false,
        "pointradius": 5,
        "points": false,
        "renderer": "flot",
        "scopedVars": {
          "Measurement": {
            "selected": true,
            "text": "All",
            "value": "$__all"
          }
        },
        "seriesOverrides": [],
        "spaceLength": 10,
        "stack": false,
        "steppedLine": false,
        "targets": [
          {
            "alias": "max",
            "dsType": "influxdb",
            "groupBy": [
              {
                "params": [
                  "$__interval"
                ],
                "type": "time"
              },
              {
                "params": [
                  "none"
                ],
                "type": "fill"
              }
            ],
            "measurement": "/^$Measurement$/",
            "orderByTime": "ASC",
            "policy": "default",
            "query": "SELECT max(\"value\") FROM /^$Measurement$/ WHERE $timeFilter and value > 0 GROUP BY time($__interval) fill(none)",
            "rawQuery": true,
            "refId": "C",
            "resultFormat": "time_series",
            "select": [
              [
                {
                  "params": [
                    "value"
                  ],
                  "type": "field"
                },
                {
                  "params": [],
                  "type": "max"
                }
              ]
            ],
            "tags": []
          },
          {
            "alias": "p95",
            "dsType": "influxdb",
            "groupBy": [
              {
                "params": [
                  "$__interval"
                ],
                "type": "time"
              },
              {
                "params": [
                  "none"
                ],
                "type": "fill"
              }
            ],
            "measurement": "/^$Measurement$/",
            "orderByTime": "ASC",
            "policy": "default",
            "query": "SELECT percentile(\"value\", 95) FROM /^$Measurement$/ WHERE $timeFilter and value > 0 GROUP BY time($__interval) fill(none)",
            "rawQuery": true,
            "refId": "D",
            "resultFormat": "time_series",
            "select": [
              [
                {
                  "params": [
                    "value"
                  ],
                  "type": "field"
                },
                {
                  "params": [
                    95
                  ],
                  "type": "percentile"
                }
              ]
            ],
            "tags": []
          },
          {
            "alias": "p90",
            "dsType": "influxdb",
            "groupBy": [
              {
                "params": [
                  "$__interval"
                ],
                "type": "time"
              },
              {
                "params": [
                  "none"
                ],
                "type": "fill"
              }
            ],
            "measurement": "/^$Measurement$/",
            "orderByTime": "ASC",
            "policy": "default",
            "query": "SELECT percentile(\"value\", 90) FROM /^$Measurement$/ WHERE $timeFilter and value > 0 GROUP BY time($__interval) fill(none)",
            "rawQuery": true,
            "refId": "A",
            "resultFormat": "time_series",
            "select": [
              [
                {
                  "params": [
                    "value"
                  ],
                  "type": "field"
                },
                {
                  "params": [
                    "90"
                  ],
                  "type": "percentile"
                }
              ]
            ],
            "tags": []
          },
          {
            "alias": "min",
            "dsType": "influxdb",
            "groupBy": [
              {
                "params": [
                  "$__interval"
                ],
                "type": "time"
              },
              {
                "params": [
                  "none"
                ],
                "type": "fill"
              }
            ],
            "measurement": "/^$Measurement$/",
            "orderByTime": "ASC",
            "policy": "default",
            "query": "SELECT min(\"value\") FROM /^$Measurement$/ WHERE $timeFilter and value > 0 GROUP BY time($__interval) fill(none)",
            "rawQuery": true,
            "refId": "E",
            "resultFormat": "time_series",
            "select": [
              [
                {
                  "params": [
                    "value"
                  ],
                  "type": "field"
                },
                {
                  "params": [],
                  "type": "min"
                }
              ]
            ],
            "tags": []
          }
        ],
        "thresholds": [],
        "timeFrom": null,
        "timeRegions": [],
        "timeShift": null,
        "title": "$Measurement (over time)",
        "tooltip": {
          "shared": true,
          "sort": 0,
          "value_type": "individual"
        },
        "type": "graph",
        "xaxis": {
          "buckets": null,
          "mode": "time",
          "name": null,
          "show": true,
          "values": []
        },
        "yaxes": [
          {
            "format": "ms",
            "label": null,
            "logBase": 2,
            "max": null,
            "min": null,
            "show": true
          },
          {
            "format": "short",
            "label": null,
            "logBase": 1,
            "max": null,
            "min": null,
            "show": true
          }
        ],
        "yaxis": {
          "align": false,
          "alignLevel": null
        }
      },
      {
        "cards": {
          "cardPadding": null,
          "cardRound": null
        },
        "color": {
          "cardColor": "rgb(0, 234, 255)",
          "colorScale": "sqrt",
          "colorScheme": "interpolateRdYlGn",
          "exponent": 0.5,
          "mode": "spectrum"
        },
        "dataFormat": "timeseries",
        "datasource": "myinfluxdb",
        "gridPos": {
          "h": 7,
          "w": 12,
          "x": 12,
          "y": 12
        },
        "heatmap": {},
        "height": "250px",
        "hideZeroBuckets": false,
        "highlightCards": true,
        "id": 8,
        "interval": ">1s",
        "legend": {
          "show": false
        },
        "links": [],
        "reverseYBuckets": false,
        "scopedVars": {
          "Measurement": {
            "selected": true,
            "text": "All",
            "value": "$__all"
          }
        },
        "targets": [
          {
            "dsType": "influxdb",
            "groupBy": [
              {
                "params": [
                  "$__interval"
                ],
                "type": "time"
              },
              {
                "params": [
                  "null"
                ],
                "type": "fill"
              }
            ],
            "measurement": "http_req_duration",
            "orderByTime": "ASC",
            "policy": "default",
            "query": "SELECT \"value\" FROM /^$Measurement$/ WHERE $timeFilter and value > 0",
            "rawQuery": true,
            "refId": "A",
            "resultFormat": "time_series",
            "select": [
              [
                {
                  "params": [
                    "value"
                  ],
                  "type": "field"
                },
                {
                  "params": [],
                  "type": "mean"
                }
              ]
            ],
            "tags": []
          }
        ],
        "title": "$Measurement (over time)",
        "tooltip": {
          "show": true,
          "showHistogram": true
        },
        "tooltipDecimals": null,
        "type": "heatmap",
        "xAxis": {
          "show": true
        },
        "xBucketNumber": null,
        "xBucketSize": null,
        "yAxis": {
          "decimals": null,
          "format": "ms",
          "logBase": 2,
          "max": null,
          "min": null,
          "show": true,
          "splitFactor": null
        },
        "yBucketBound": "auto",
        "yBucketNumber": null,
        "yBucketSize": null
      },
      {
        "collapsed": false,
        "datasource": null,
        "gridPos": {
          "h": 1,
          "w": 24,
          "x": 0,
          "y": 19
        },
        "id": 20,
        "panels": [],
        "repeat": null,
        "title": "Dashboard Row",
        "type": "row"
      }
    ],
    "refresh": "5s",
    "schemaVersion": 22,
    "style": "dark",
    "tags": [],
    "templating": {
      "list": [
        {
          "allValue": null,
          "current": {
            "selected": true,
            "tags": [],
            "text": "http_req_duration + http_req_blocked",
            "value": [
              "http_req_duration",
              "http_req_blocked"
            ]
          },
          "hide": 0,
          "includeAll": true,
          "label": null,
          "multi": true,
          "name": "Measurement",
          "options": [
            {
              "selected": true,
              "text": "All",
              "value": "$__all"
            },
            {
              "selected": false,
              "text": "http_req_duration",
              "value": "http_req_duration"
            },
            {
              "selected": false,
              "text": "http_req_blocked",
              "value": "http_req_blocked"
            },
            {
              "selected": false,
              "text": "http_req_connecting",
              "value": "http_req_connecting"
            },
            {
              "selected": false,
              "text": "http_req_looking_up",
              "value": "http_req_looking_up"
            },
            {
              "selected": false,
              "text": "http_req_receiving",
              "value": "http_req_receiving"
            },
            {
              "selected": false,
              "text": "http_req_sending",
              "value": "http_req_sending"
            },
            {
              "selected": false,
              "text": "http_req_waiting",
              "value": "http_req_waiting"
            }
          ],
          "query": "http_req_duration,http_req_blocked,http_req_connecting,http_req_looking_up,http_req_receiving,http_req_sending,http_req_waiting",
          "skipUrlSync": false,
          "type": "custom"
        }
      ]
    },
    "time": {
      "from": "now-30m",
      "to": "now"
    },
    "timepicker": {
      "refresh_intervals": [
        "5s",
        "10s",
        "30s",
        "1m",
        "5m",
        "15m",
        "30m",
        "1h",
        "2h",
        "1d"
      ],
      "time_options": [
        "5m",
        "15m",
        "1h",
        "6h",
        "12h",
        "24h",
        "2d",
        "7d",
        "30d"
      ]
    },
    "timezone": "browser",
    "title": "k6 Load Testing Results Copy",
    "uid": "dqCx1YXZk",
    "variables": {
      "list": []
    },
    "version": 5
  }