<?xml version="1.0" encoding="UTF-8" standalone="no"?>
<!-- Created with Inkscape (http://www.inkscape.org/) -->

<svg
   xmlns:dc="http://purl.org/dc/elements/1.1/"
   xmlns:cc="http://creativecommons.org/ns#"
   xmlns:rdf="http://www.w3.org/1999/02/22-rdf-syntax-ns#"
   xmlns:svg="http://www.w3.org/2000/svg"
   xmlns="http://www.w3.org/2000/svg"
   xmlns:xlink="http://www.w3.org/1999/xlink"
   xmlns:sodipodi="http://sodipodi.sourceforge.net/DTD/sodipodi-0.dtd"
   xmlns:inkscape="http://www.inkscape.org/namespaces/inkscape"
   width="150mm"
   height="140mm"
   viewBox="0 0 150 140"
   version="1.1"
   id="svg3744"
   inkscape:version="0.92.4 (unknown)"
   sodipodi:docname="cybears.svg">
  <defs
     id="defs3738">
    <linearGradient
       inkscape:collect="always"
       xlink:href="#linearGradient3967"
       id="linearGradient3993"
       gradientUnits="userSpaceOnUse"
       gradientTransform="matrix(0,-0.2711843,0.3400238,0,3.0766895,292.72012)"
       x1="17.086166"
       y1="219.55795"
       x2="504.99997"
       y2="218.2321" />
    <linearGradient
       id="linearGradient3967">
      <stop
         style="stop-color:#ffffff;stop-opacity:1;"
         offset="0"
         id="stop3973" />
      <stop
         id="stop3981"
         offset="0.38942307"
         style="stop-color:#ff0000;stop-opacity:1;" />
      <stop
         id="stop3975"
         offset="0.75"
         style="stop-color:#9a0000;stop-opacity:0.73949581;" />
      <stop
         id="stop3979"
         offset="0.79807693"
         style="stop-color:#ffffff;stop-opacity:0.89075631;" />
      <stop
         id="stop3971"
         offset="1"
         style="stop-color:#00b8ff;stop-opacity:1;" />
    </linearGradient>
  </defs>
  <sodipodi:namedview
     id="base"
     pagecolor="#ffffff"
     bordercolor="#666666"
     borderopacity="1.0"
     inkscape:pageopacity="0.0"
     inkscape:pageshadow="2"
     inkscape:zoom="1.979899"
     inkscape:cx="348.02223"
     inkscape:cy="356.40815"
     inkscape:document-units="mm"
     inkscape:current-layer="layer1"
     showgrid="false"
     inkscape:window-width="1920"
     inkscape:window-height="1020"
     inkscape:window-x="0"
     inkscape:window-y="32"
     inkscape:window-maximized="1" />
  <metadata
     id="metadata3741">
    <rdf:RDF>
      <cc:Work
         rdf:about="">
        <dc:format>image/svg+xml</dc:format>
        <dc:type
           rdf:resource="http://purl.org/dc/dcmitype/StillImage" />
        <dc:title />
      </cc:Work>
    </rdf:RDF>
  </metadata>
  <g
     inkscape:label="Layer 1"
     inkscape:groupmode="layer"
     id="layer1"
     transform="translate(0,-157)">
    <path
       style="fill:url(#linearGradient3993);fill-opacity:1;stroke:#000000;stroke-width:1.59282029;stroke-miterlimit:4;stroke-dasharray:none;stroke-dashoffset:0;stroke-opacity:1"
       d="m 73.804029,159.9763 c -9.422705,0.0603 -18.736693,0.82969 -26.034808,2.31138 -5.230883,1.06198 -12.562191,3.52138 -12.859619,4.31122 -0.141767,0.37644 0.133071,3.03472 0.611423,5.89903 l 0.867822,5.20562 8.727577,4.63282 c 4.801456,2.55041 13.386538,7.13424 19.072479,10.18011 5.68594,3.04586 10.609424,5.54388 10.94645,5.55736 0.337039,0.0135 9.17195,-4.51972 19.634598,-10.07963 18.893139,-10.0399 19.032399,-10.12627 19.437359,-11.82821 0.86009,-3.61483 1.54549,-9.51747 1.15381,-9.90879 -0.68924,-0.68859 -7.37558,-2.80719 -11.89318,-3.76854 -7.688687,-1.63618 -17.714394,-2.47617 -27.77047,-2.51237 -0.628504,-0.002 -1.26526,-0.004 -1.893441,0 z m 51.428621,4.41171 c -1.30028,0.0252 -2.58174,0.1957 -3.81647,0.51253 l -1.99205,0.51252 -0.48322,3.31633 c -0.26601,1.82636 -0.38389,3.49806 -0.25641,3.70825 0.12749,0.21019 0.83428,0.38188 1.56801,0.38188 2.21126,0 6.0145,1.72809 9.25025,4.21072 2.85691,2.19198 3.1347,2.57891 4.35885,5.96939 1.07886,2.98804 1.31161,4.37638 1.31161,7.84864 0,4.86679 -0.80842,7.51911 -3.31353,10.86346 -1.58991,2.12257 -1.59803,2.16894 -0.87769,3.70826 0.65185,1.39296 0.84178,1.51149 1.86386,1.11549 5.52629,-2.14109 10.30656,-6.87964 12.55391,-12.45128 1.26713,-3.14153 1.50219,-4.28907 1.49897,-7.48686 -0.006,-6.41198 -1.64227,-10.61638 -5.94659,-15.30535 -4.0951,-4.46103 -10.08496,-7.01322 -15.7195,-6.90398 z m -100.342506,0.0904 c -0.199792,-0.001 -0.393347,0.006 -0.591708,0.01 -5.553966,0.10477 -10.733395,2.4192 -14.7037532,6.63264 -2.9597434,3.14097 -4.1784754,5.24711 -5.3154345,9.15507 -1.5185099,5.21937 -0.5519544,12.70898 2.1498397,16.63187 2.2162861,3.21796 6.629978,7.37126 9.260114,8.7129 l 2.72182,1.38682 0.917129,-1.45717 c 0.593401,-0.95506 0.75913,-1.67182 0.48323,-2.04004 -3.888907,-5.19026 -4.963332,-8.51983 -4.704023,-14.56169 0.174995,-4.0772 0.286956,-4.48353 1.903305,-6.96428 3.324942,-5.10307 7.929086,-8.41341 12.672254,-9.10482 1.1624,-0.16943 2.099722,-0.51946 2.090669,-0.7738 -0.08373,-2.35207 -0.868859,-6.36042 -1.32146,-6.7432 -0.311205,-0.26319 -1.995228,-0.61791 -3.747439,-0.78385 -0.604661,-0.0573 -1.215178,-0.0951 -1.814543,-0.10052 z m 47.227535,8.80334 c 0.974296,-0.005 2.01455,0 3.106436,0 11.900056,0 13.866455,0.10307 13.293533,0.65322 -0.370041,0.35536 -3.410174,2.56558 -6.755249,4.91418 -3.345066,2.34862 -6.337418,4.26325 -6.656625,4.25093 -0.516531,-0.0199 -12.327595,-8.27174 -13.421736,-9.37615 -0.238734,-0.24098 3.61364,-0.4065 10.433641,-0.44218 z m -40.906209,3.76858 c -0.0464,-0.005 -0.101858,0.004 -0.177512,0.01 -0.453842,0.0402 -1.390555,0.26665 -2.406239,0.59292 -3.105219,0.99747 -6.370645,3.88721 -7.968232,7.04467 -1.676437,3.31329 -1.762397,8.3987 -0.19724,11.63728 0.83946,1.737 1.191169,2.10199 1.617315,1.64812 0.592388,-0.63092 4.427897,-8.59774 4.427897,-9.19527 0,-0.20186 0.61722,-1.51117 1.370768,-2.90428 1.173671,-1.98915 1.624946,-4.46255 2.524592,-6.29098 0.6231,-1.25423 1.028028,-2.37926 0.907265,-2.50232 -0.01515,-0.0154 -0.05224,-0.0349 -0.09864,-0.0402 z m 88.36058,0.0201 c -0.0876,0.006 -0.17167,0.0173 -0.23667,0.0402 -0.36831,0.13024 1.8076,5.5685 7.88932,19.73715 l 0.96645,2.26113 1.06506,-1.32652 c 3.6378,-4.54591 2.29083,-12.79194 -2.8303,-17.38559 -1.8351,-1.64608 -5.53991,-3.41479 -6.85386,-3.32637 z m -3.34311,3.7384 c -0.20584,-0.0201 -1.38492,0.52683 -2.7514,1.26624 -1.45758,0.7887 -7.20142,3.88834 -12.761,6.89392 -5.559588,3.0056 -10.14998,5.50993 -10.196973,5.55736 -0.04699,0.0474 -1.648564,5.80726 -3.560063,12.80303 -3.189867,11.67437 -3.979995,15.85221 -3.165595,16.68211 0.168472,0.17168 6.363966,0.31153 13.776748,0.31153 h 13.480903 l 0.0395,-1.05519 c 0.19351,-4.71404 -0.6152,-3.80901 8.3134,-9.23545 4.46549,-2.71397 8.25743,-5.07826 8.43172,-5.25588 0.1743,-0.17762 -1.38075,-4.28189 -3.45158,-9.12492 -6.21351,-14.53147 -7.98074,-18.62642 -8.12601,-18.82265 -0.005,-0.006 -0.0159,-0.0187 -0.0296,-0.02 z m -82.088546,0.02 c -0.241192,0.28541 -11.400519,26.32718 -11.626921,27.13357 -0.14934,0.53193 2.056784,2.11777 8.096437,5.81865 l 8.303529,5.08502 v 2.41187 c 0,1.32822 0.137234,2.56178 0.305706,2.73346 0.168472,0.17169 6.474304,0.31154 14.013443,0.31154 h 13.707714 v -1.95966 c 0,-1.07664 -1.576464,-7.78442 -3.510756,-14.91341 l -3.520607,-12.9638 -12.810312,-6.91404 c -7.04607,-3.80264 -12.875483,-6.84113 -12.958233,-6.7432 z m 51.024283,16.80271 c -0.09971,0 -2.382981,1.07425 -5.0689,2.38173 l -4.881526,2.37167 -4.891387,-2.38172 c -2.692443,-1.31064 -4.94463,-2.32869 -4.999877,-2.26113 -0.05522,0.0676 1.212828,5.07303 2.820446,11.12476 2.595774,9.77158 2.924272,11.48922 2.928912,15.33549 l 0.0095,4.33133 H 68.77422 c -1.876862,0 -3.24404,0.47578 -7.346945,2.57265 l -5.03932,2.58272 H 51.70366 47.019364 l -6.114234,-2.9244 -6.124098,-2.93444 v -3.55751 -3.55752 l -5.680323,-3.57761 c -3.121404,-1.9703 -5.767379,-3.58765 -5.887414,-3.58765 -0.120036,0 -0.153515,0.57814 -0.06906,1.28633 0.291799,2.4462 3.362823,53.84102 3.362823,56.27701 0,2.01749 0.104482,2.32979 0.601572,1.81896 0.331134,-0.3403 2.842833,-5.04352 5.581697,-10.45145 2.738864,-5.40793 5.827218,-11.46215 6.863726,-13.45624 l 1.883577,-3.62786 8.96426,-3.04498 8.964259,-3.04499 h 15.847714 15.847703 l 8.964264,3.04499 8.95439,3.04498 1.87373,3.62786 c 1.02921,1.99475 3.54856,6.89201 5.60142,10.88358 6.31115,12.27134 6.93996,13.36574 7.15958,12.63218 0.11462,-0.38272 0.74633,-10.17873 1.41022,-21.76716 0.66389,-11.58842 1.43033,-24.46867 1.70606,-28.63092 0.27575,-4.16226 0.42899,-7.80338 0.3353,-8.08982 -0.0948,-0.28991 -2.71229,1.09937 -5.90713,3.13542 l -5.7395,3.65802 -0.23668,3.6178 -0.22682,3.61782 -5.73949,2.79374 -5.74936,2.79376 -4.713878,0.01 -4.713875,0.01 -5.03932,-2.5827 c -4.102964,-2.097 -5.470142,-2.57279 -7.346992,-2.57279 h -2.307639 l 0.0095,-5.26592 c 0.006,-2.8971 0.20108,-6.00267 0.433923,-6.90398 1.162305,-5.64985 3.54997,-12.3635 4.886149,-17.23905 0.180096,-0.69391 0.588158,-1.49316 0.488458,-1.49316 z m 4.526511,45.87583 -14.42763,0.01 H 60.835932 l -8.323257,2.83395 -8.313381,2.83395 -6.548157,13.02411 c -3.601092,7.1638 -6.548145,13.23165 -6.548145,13.47634 0,0.37953 4.444368,4.17085 12.110127,10.34089 2.699029,2.25439 5.672701,5.03759 8.806474,5.7081 l 4.536375,-17.27503 0.315569,-1.19589 h 1.212983 34.141111 1.212995 l 0.31557,1.19589 4.585681,17.42578 2.534443,-0.37184 9.22066,-7.67779 c 5.07344,-4.21971 9.23054,-7.86459 9.23054,-8.09986 0,-0.23528 -2.94706,-6.2955 -6.54816,-13.4663 l -6.54815,-13.03421 -8.273949,-2.86411 -8.264073,-2.86409 z m -29.397645,6.10002 H 75.18466 90.065928 l -5.75921,5.96939 c -3.170711,3.28339 -6.433753,6.76236 -7.248333,7.72804 -0.814591,0.96571 -1.628609,1.74861 -1.814554,1.74861 -0.185933,0 -1.128288,-0.89533 -2.090669,-1.9898 -0.962393,-1.09445 -4.252925,-4.56336 -7.307502,-7.71799 z m -1.005891,26.87227 -4.151771,15.81787 c 1.633941,0.27181 3.579886,0.58009 5.946598,0.92456 6.380878,0.9287 12.641411,1.69425 13.904953,1.7084 1.263542,0.0142 7.60436,-0.74995 14.092332,-1.69836 l 6.114234,-0.8944 -4.171486,-15.85807 z"
       id="rect3983"
       inkscape:connector-curvature="0"
       inkscape:export-xdpi="72"
       inkscape:export-ydpi="72"
       sodipodi:nodetypes="ccccccccsccccccccccsccscscccccccccccccccscccccccscccccccccccsccccccccccccccccscsccccscccccccscscscccccccccsccscccccccccscscscccccccccscscccccccccccsccccccccccccscccccccccccsccccccccccsccccccccccc" />
  </g>
</svg>
